\relax 
\providecommand\hyper@newdestlabel[2]{}
\providecommand\HyperFirstAtBeginDocument{\AtBeginDocument}
\HyperFirstAtBeginDocument{\ifx\hyper@anchor\@undefined
\global\let\oldcontentsline\contentsline
\gdef\contentsline#1#2#3#4{\oldcontentsline{#1}{#2}{#3}}
\global\let\oldnewlabel\newlabel
\gdef\newlabel#1#2{\newlabelxx{#1}#2}
\gdef\newlabelxx#1#2#3#4#5#6{\oldnewlabel{#1}{{#2}{#3}}}
\AtEndDocument{\ifx\hyper@anchor\@undefined
\let\contentsline\oldcontentsline
\let\newlabel\oldnewlabel
\fi}
\fi}
\global\let\hyper@last\relax 
\gdef\HyperFirstAtBeginDocument#1{#1}
\providecommand\HyField@AuxAddToFields[1]{}
\providecommand\HyField@AuxAddToCoFields[2]{}
\providecommand \oddpage@label [2]{}
\@writefile{toc}{\contentsline {section}{\numberline {1}Why Git Lab?}{1}{section.1}}
\@writefile{toc}{\contentsline {section}{\numberline {2}Installing Git Lab and getting started}{2}{section.2}}
\@writefile{toc}{\contentsline {subsection}{\numberline {2.1}Installing GIT client}{2}{subsection.2.1}}
\@writefile{toc}{\contentsline {subsubsection}{\numberline {2.1.1}Windows}{2}{subsubsection.2.1.1}}
\@writefile{toc}{\contentsline {subsubsection}{\numberline {2.1.2}Mac}{2}{subsubsection.2.1.2}}
\@writefile{toc}{\contentsline {subsubsection}{\numberline {2.1.3}Linux}{2}{subsubsection.2.1.3}}
\@writefile{toc}{\contentsline {subsection}{\numberline {2.2}Git global set up}{2}{subsection.2.2}}
\@writefile{toc}{\contentsline {subsection}{\numberline {2.3}Creating your own EPFL-Git repository}{2}{subsection.2.3}}
\@writefile{toc}{\contentsline {subsection}{\numberline {2.4}Conflict resolution}{3}{subsection.2.4}}
\@writefile{toc}{\contentsline {subsection}{\numberline {2.5}Branching}{4}{subsection.2.5}}
\newlabel{Branching}{{2.5}{4}{Branching}{subsection.2.5}{}}
\@writefile{toc}{\contentsline {section}{\numberline {3}Recommendations for use and ownership at LTE}{8}{section.3}}
\newlabel{Ownership}{{3}{8}{Recommendations for use and ownership at LTE}{section.3}{}}
\@writefile{lot}{\contentsline {table}{\numberline {1}{\ignorespaces Group ownership rights\relax }}{8}{table.caption.3}}
\providecommand*\caption@xref[2]{\@setref\relax\@undefined{#1}}
\newlabel{table:1}{{1}{8}{Group ownership rights\relax }{table.caption.3}{}}
\@writefile{lot}{\contentsline {table}{\numberline {2}{\ignorespaces Project ownership rights\relax }}{9}{table.caption.4}}
\newlabel{table:2}{{2}{9}{Project ownership rights\relax }{table.caption.4}{}}
\@writefile{toc}{\contentsline {section}{\numberline {4}Useful commands and workarounds}{10}{section.4}}
\@writefile{toc}{\contentsline {subsection}{\numberline {4.1}using gitignore for the frequent exclusion of specific files and file types (fvanden 26.04.2016)}{10}{subsection.4.1}}
\@writefile{lol}{\contentsline {lstlisting}{\numberline {1}.gitignore}{10}{lstlisting.1}}
