\relax 
\providecommand\hyper@newdestlabel[2]{}
\providecommand\HyperFirstAtBeginDocument{\AtBeginDocument}
\HyperFirstAtBeginDocument{\ifx\hyper@anchor\@undefined
\global\let\oldcontentsline\contentsline
\gdef\contentsline#1#2#3#4{\oldcontentsline{#1}{#2}{#3}}
\global\let\oldnewlabel\newlabel
\gdef\newlabel#1#2{\newlabelxx{#1}#2}
\gdef\newlabelxx#1#2#3#4#5#6{\oldnewlabel{#1}{{#2}{#3}}}
\AtEndDocument{\ifx\hyper@anchor\@undefined
\let\contentsline\oldcontentsline
\let\newlabel\oldnewlabel
\fi}
\fi}
\global\let\hyper@last\relax 
\gdef\HyperFirstAtBeginDocument#1{#1}
\providecommand\HyField@AuxAddToFields[1]{}
\providecommand\HyField@AuxAddToCoFields[2]{}
\@writefile{toc}{\contentsline {section}{\numberline {1}Power up the radar}{1}{section.1}}
\@writefile{toc}{\contentsline {subsection}{\numberline {1.1}Grid Power}{1}{subsection.1.1}}
\@writefile{toc}{\contentsline {section}{\numberline {2}Start all the electrical connections}{1}{section.2}}
\@writefile{toc}{\contentsline {section}{\numberline {3}How to connect to the radar}{2}{section.3}}
\@writefile{toc}{\contentsline {subsection}{\numberline {3.1}Connection on site with a laptop}{2}{subsection.3.1}}
\@writefile{toc}{\contentsline {subsection}{\numberline {3.2}Connection through internet}{3}{subsection.3.2}}
\@writefile{toc}{\contentsline {subsection}{\numberline {3.3}Connection on site directly from the MXPol computer}{3}{subsection.3.3}}
\@writefile{toc}{\contentsline {section}{\numberline {4}How to start the MXPol computer through IPMI client}{3}{section.4}}
\@writefile{toc}{\contentsline {section}{\numberline {5}Operate the radar}{4}{section.5}}
\@writefile{toc}{\contentsline {subsection}{\numberline {5.1}Start the radar software}{4}{subsection.5.1}}
\@writefile{toc}{\contentsline {subsection}{\numberline {5.2}Basic startup operations}{4}{subsection.5.2}}
\@writefile{toc}{\contentsline {subsection}{\numberline {5.3}Data Storage}{7}{subsection.5.3}}
